PCBNEW-LibModule-V1  11-02-2014 14:55:42
# encoding utf-8
Units mm
$INDEX
BBB
$EndINDEX
$MODULE BBB
Po 0 0 0 15 52FA51A8 00000000 ~~
Li BBB
Cd Beagle Bone Black
Kw Beagle
Sc 0
AR 
Op 0 0 0
T0 44.8945 23.9395 1.016 1.016 0 0.254 N V 21 N "U"
T1 44.7675 26.67 1.016 1.016 0 0.2032 N V 21 N "BBB"
DS 72.6948 0.6096 72.6948 5.6896 0.3048 21
DS 21.8948 0.6096 72.6948 0.6096 0.3048 21
DS 21.8948 5.6896 72.6948 5.6896 0.3048 21
DS 21.8948 5.6896 14.2748 5.6896 0.3 21
DS 14.2748 0.6096 21.8948 0.6096 0.3 21
DS 14.2748 5.6896 14.2748 0.6096 0.3 21
DS 14.2748 53.9496 14.2748 48.8696 0.3 21
DS 14.2748 48.8696 21.8948 48.8696 0.3 21
DS 21.8948 53.9496 14.2748 53.9496 0.3 21
DS 21.8948 53.9496 72.6948 53.9496 0.3048 21
DS 21.8948 48.8696 72.6948 48.8696 0.3048 21
DS 72.6948 48.8696 72.6948 53.9496 0.3048 21
DS 90.4875 48.26 90.4875 33.655 0.381 21
DA 84.1375 48.2723 84.1375 54.6223 -900 0.381 21
DS 84.1375 54.61 16.8275 54.61 0.381 21
DS 90.4875 33.655 70.1675 33.655 0.381 21
DS 70.1675 33.655 70.1675 15.875 0.381 21
DS 4.1275 12.7 4.1275 41.91 0.381 21
DA 16.8275 41.91 4.1275 41.91 -900 0.381 21
DA 16.8275 12.7 16.8275 0 -900 0.381 21
DS 90.4875 0 16.8275 0 0.381 21
DS 90.4875 15.875 70.1675 15.875 0.381 21
DS 90.4875 15.875 90.4875 0 0.381 21
$PAD
Sh "1" C 1.5 1.5 0 0 1800
Dr 1.02 0 0
At STD N 00E0FFFF
Ne 0 ""
Po 71.4248 4.4196
$EndPAD
$PAD
Sh "46" C 1.524 1.524 0 0 1800
Dr 1.016 0 0
At STD N 00E0FFFF
Ne 0 ""
Po 15.5448 1.8796
$EndPAD
$PAD
Sh "45" C 1.524 1.524 0 0 1800
Dr 1.016 0 0
At STD N 00E0FFFF
Ne 0 ""
Po 15.5448 4.4196
$EndPAD
$PAD
Sh "44" C 1.524 1.524 0 0 1800
Dr 1.016 0 0
At STD N 00E0FFFF
Ne 0 ""
Po 18.0848 1.8796
$EndPAD
$PAD
Sh "43" C 1.524 1.524 0 0 1800
Dr 1.016 0 0
At STD N 00E0FFFF
Ne 0 ""
Po 18.0848 4.4196
$EndPAD
$PAD
Sh "42" C 1.524 1.524 0 0 1800
Dr 1.016 0 0
At STD N 00E0FFFF
Ne 0 ""
Po 20.6248 1.8796
$EndPAD
$PAD
Sh "41" C 1.524 1.524 0 0 1800
Dr 1.016 0 0
At STD N 00E0FFFF
Ne 0 ""
Po 20.6248 4.4196
$EndPAD
$PAD
Sh "30" C 1.524 1.524 0 0 1800
Dr 1.016 0 0
At STD N 00E0FFFF
Ne 0 ""
Po 35.8648 1.8796
$EndPAD
$PAD
Sh "40" C 1.524 1.524 0 0 1800
Dr 1.016 0 0
At STD N 00E0FFFF
Ne 0 ""
Po 23.1648 1.8796
$EndPAD
$PAD
Sh "39" C 1.524 1.524 0 0 1800
Dr 1.016 0 0
At STD N 00E0FFFF
Ne 0 ""
Po 23.1648 4.4196
$EndPAD
$PAD
Sh "9" C 1.524 1.524 0 0 1800
Dr 1.016 0 0
At STD N 00E0FFFF
Ne 0 ""
Po 61.2648 4.4196
$EndPAD
$PAD
Sh "7" C 1.524 1.524 0 0 1800
Dr 1.016 0 0
At STD N 00E0FFFF
Ne 0 ""
Po 63.8048 4.4196
$EndPAD
$PAD
Sh "5" C 1.524 1.524 0 0 1800
Dr 1.016 0 0
At STD N 00E0FFFF
Ne 0 ""
Po 66.3448 4.4196
$EndPAD
$PAD
Sh "3" C 1.524 1.524 0 0 1800
Dr 1.016 0 0
At STD N 00E0FFFF
Ne 0 ""
Po 68.8848 4.4196
$EndPAD
$PAD
Sh "37" C 1.524 1.524 0 0 1800
Dr 1.016 0 0
At STD N 00E0FFFF
Ne 0 ""
Po 25.7048 4.4196
$EndPAD
$PAD
Sh "35" C 1.524 1.524 0 0 1800
Dr 1.016 0 0
At STD N 00E0FFFF
Ne 0 ""
Po 28.2448 4.4196
$EndPAD
$PAD
Sh "38" C 1.524 1.524 0 0 1800
Dr 1.016 0 0
At STD N 00E0FFFF
Ne 0 ""
Po 25.7048 1.8796
$EndPAD
$PAD
Sh "36" C 1.524 1.524 0 0 1800
Dr 1.016 0 0
At STD N 00E0FFFF
Ne 0 ""
Po 28.2448 1.8796
$EndPAD
$PAD
Sh "34" C 1.524 1.524 0 0 1800
Dr 1.016 0 0
At STD N 00E0FFFF
Ne 0 ""
Po 30.7848 1.8796
$EndPAD
$PAD
Sh "32" C 1.524 1.524 0 0 1800
Dr 1.016 0 0
At STD N 00E0FFFF
Ne 0 ""
Po 33.3248 1.8796
$EndPAD
$PAD
Sh "28" C 1.524 1.524 0 0 1800
Dr 1.016 0 0
At STD N 00E0FFFF
Ne 0 ""
Po 38.4048 1.8796
$EndPAD
$PAD
Sh "33" C 1.524 1.524 0 0 1800
Dr 1.016 0 0
At STD N 00E0FFFF
Ne 0 ""
Po 30.7848 4.4196
$EndPAD
$PAD
Sh "26" C 1.524 1.524 0 0 1800
Dr 1.016 0 0
At STD N 00E0FFFF
Ne 0 ""
Po 40.9448 1.8796
$EndPAD
$PAD
Sh "24" C 1.524 1.524 0 0 1800
Dr 1.016 0 0
At STD N 00E0FFFF
Ne 0 ""
Po 43.4848 1.8796
$EndPAD
$PAD
Sh "31" C 1.524 1.524 0 0 1800
Dr 1.016 0 0
At STD N 00E0FFFF
Ne 0 ""
Po 33.3248 4.4196
$EndPAD
$PAD
Sh "22" C 1.524 1.524 0 0 1800
Dr 1.016 0 0
At STD N 00E0FFFF
Ne 0 ""
Po 46.0248 1.8796
$EndPAD
$PAD
Sh "29" C 1.524 1.524 0 0 1800
Dr 1.016 0 0
At STD N 00E0FFFF
Ne 0 ""
Po 35.8648 4.4196
$EndPAD
$PAD
Sh "20" C 1.524 1.524 0 0 1800
Dr 1.016 0 0
At STD N 00E0FFFF
Ne 0 ""
Po 48.5648 1.8796
$EndPAD
$PAD
Sh "27" C 1.524 1.524 0 0 1800
Dr 1.016 0 0
At STD N 00E0FFFF
Ne 0 ""
Po 38.4048 4.4196
$EndPAD
$PAD
Sh "18" C 1.524 1.524 0 0 1800
Dr 1.016 0 0
At STD N 00E0FFFF
Ne 0 ""
Po 51.1048 1.8796
$EndPAD
$PAD
Sh "25" C 1.524 1.524 0 0 1800
Dr 1.016 0 0
At STD N 00E0FFFF
Ne 0 ""
Po 40.9448 4.4196
$EndPAD
$PAD
Sh "16" C 1.524 1.524 0 0 1800
Dr 1.016 0 0
At STD N 00E0FFFF
Ne 0 ""
Po 53.6448 1.8796
$EndPAD
$PAD
Sh "23" C 1.524 1.524 0 0 1800
Dr 1.016 0 0
At STD N 00E0FFFF
Ne 0 ""
Po 43.4848 4.4196
$EndPAD
$PAD
Sh "14" C 1.524 1.524 0 0 1800
Dr 1.016 0 0
At STD N 00E0FFFF
Ne 0 ""
Po 56.1848 1.8796
$EndPAD
$PAD
Sh "21" C 1.524 1.524 0 0 1800
Dr 1.016 0 0
At STD N 00E0FFFF
Ne 0 ""
Po 46.0248 4.4196
$EndPAD
$PAD
Sh "12" C 1.524 1.524 0 0 1800
Dr 1.016 0 0
At STD N 00E0FFFF
Ne 0 ""
Po 58.7248 1.8796
$EndPAD
$PAD
Sh "19" C 1.524 1.524 0 0 1800
Dr 1.016 0 0
At STD N 00E0FFFF
Ne 0 ""
Po 48.5648 4.4196
$EndPAD
$PAD
Sh "10" C 1.524 1.524 0 0 1800
Dr 1.016 0 0
At STD N 00E0FFFF
Ne 0 ""
Po 61.2648 1.8796
$EndPAD
$PAD
Sh "17" C 1.524 1.524 0 0 1800
Dr 1.016 0 0
At STD N 00E0FFFF
Ne 0 ""
Po 51.1048 4.4196
$EndPAD
$PAD
Sh "8" C 1.524 1.524 0 0 1800
Dr 1.016 0 0
At STD N 00E0FFFF
Ne 0 ""
Po 63.8048 1.8796
$EndPAD
$PAD
Sh "15" C 1.524 1.524 0 0 1800
Dr 1.016 0 0
At STD N 00E0FFFF
Ne 0 ""
Po 53.6448 4.4196
$EndPAD
$PAD
Sh "6" C 1.524 1.524 0 0 1800
Dr 1.016 0 0
At STD N 00E0FFFF
Ne 0 ""
Po 66.3448 1.8796
$EndPAD
$PAD
Sh "13" C 1.524 1.524 0 0 1800
Dr 1.016 0 0
At STD N 00E0FFFF
Ne 0 ""
Po 56.1848 4.4196
$EndPAD
$PAD
Sh "4" C 1.524 1.524 0 0 1800
Dr 1.016 0 0
At STD N 00E0FFFF
Ne 0 ""
Po 68.8848 1.8796
$EndPAD
$PAD
Sh "11" C 1.524 1.524 0 0 1800
Dr 1.016 0 0
At STD N 00E0FFFF
Ne 0 ""
Po 58.7248 4.4196
$EndPAD
$PAD
Sh "2" C 1.524 1.524 0 0 1800
Dr 1.016 0 0
At STD N 00E0FFFF
Ne 0 ""
Po 71.4248 1.8796
$EndPAD
$PAD
Sh "902" C 1.524 1.524 0 0 1800
Dr 1.016 0 0
At STD N 00E0FFFF
Ne 0 ""
Po 71.4248 50.1396
$EndPAD
$PAD
Sh "911" C 1.524 1.524 0 0 1800
Dr 1.016 0 0
At STD N 00E0FFFF
Ne 0 ""
Po 58.7248 52.6796
$EndPAD
$PAD
Sh "904" C 1.524 1.524 0 0 1800
Dr 1.016 0 0
At STD N 00E0FFFF
Ne 0 ""
Po 68.8848 50.1396
$EndPAD
$PAD
Sh "913" C 1.524 1.524 0 0 1800
Dr 1.016 0 0
At STD N 00E0FFFF
Ne 0 ""
Po 56.1848 52.6796
$EndPAD
$PAD
Sh "906" C 1.524 1.524 0 0 1800
Dr 1.016 0 0
At STD N 00E0FFFF
Ne 0 ""
Po 66.3448 50.1396
$EndPAD
$PAD
Sh "915" C 1.524 1.524 0 0 1800
Dr 1.016 0 0
At STD N 00E0FFFF
Ne 0 ""
Po 53.6448 52.6796
$EndPAD
$PAD
Sh "908" C 1.524 1.524 0 0 1800
Dr 1.016 0 0
At STD N 00E0FFFF
Ne 0 ""
Po 63.8048 50.1396
$EndPAD
$PAD
Sh "917" C 1.524 1.524 0 0 1800
Dr 1.016 0 0
At STD N 00E0FFFF
Ne 0 ""
Po 51.1048 52.6796
$EndPAD
$PAD
Sh "910" C 1.524 1.524 0 0 1800
Dr 1.016 0 0
At STD N 00E0FFFF
Ne 0 ""
Po 61.2648 50.1396
$EndPAD
$PAD
Sh "919" C 1.524 1.524 0 0 1800
Dr 1.016 0 0
At STD N 00E0FFFF
Ne 0 ""
Po 48.5648 52.6796
$EndPAD
$PAD
Sh "912" C 1.524 1.524 0 0 1800
Dr 1.016 0 0
At STD N 00E0FFFF
Ne 0 ""
Po 58.7248 50.1396
$EndPAD
$PAD
Sh "921" C 1.524 1.524 0 0 1800
Dr 1.016 0 0
At STD N 00E0FFFF
Ne 0 ""
Po 46.0248 52.6796
$EndPAD
$PAD
Sh "914" C 1.524 1.524 0 0 1800
Dr 1.016 0 0
At STD N 00E0FFFF
Ne 0 ""
Po 56.1848 50.1396
$EndPAD
$PAD
Sh "923" C 1.524 1.524 0 0 1800
Dr 1.016 0 0
At STD N 00E0FFFF
Ne 0 ""
Po 43.4848 52.6796
$EndPAD
$PAD
Sh "916" C 1.524 1.524 0 0 1800
Dr 1.016 0 0
At STD N 00E0FFFF
Ne 0 ""
Po 53.6448 50.1396
$EndPAD
$PAD
Sh "925" C 1.524 1.524 0 0 1800
Dr 1.016 0 0
At STD N 00E0FFFF
Ne 0 ""
Po 40.9448 52.6796
$EndPAD
$PAD
Sh "918" C 1.524 1.524 0 0 1800
Dr 1.016 0 0
At STD N 00E0FFFF
Ne 0 ""
Po 51.1048 50.1396
$EndPAD
$PAD
Sh "927" C 1.524 1.524 0 0 1800
Dr 1.016 0 0
At STD N 00E0FFFF
Ne 0 ""
Po 38.4048 52.6796
$EndPAD
$PAD
Sh "920" C 1.524 1.524 0 0 1800
Dr 1.016 0 0
At STD N 00E0FFFF
Ne 0 ""
Po 48.5648 50.1396
$EndPAD
$PAD
Sh "929" C 1.524 1.524 0 0 1800
Dr 1.016 0 0
At STD N 00E0FFFF
Ne 0 ""
Po 35.8648 52.6796
$EndPAD
$PAD
Sh "922" C 1.524 1.524 0 0 1800
Dr 1.016 0 0
At STD N 00E0FFFF
Ne 0 ""
Po 46.0248 50.1396
$EndPAD
$PAD
Sh "931" C 1.524 1.524 0 0 1800
Dr 1.016 0 0
At STD N 00E0FFFF
Ne 0 ""
Po 33.3248 52.6796
$EndPAD
$PAD
Sh "924" C 1.524 1.524 0 0 1800
Dr 1.016 0 0
At STD N 00E0FFFF
Ne 0 ""
Po 43.4848 50.1396
$EndPAD
$PAD
Sh "926" C 1.524 1.524 0 0 1800
Dr 1.016 0 0
At STD N 00E0FFFF
Ne 0 ""
Po 40.9448 50.1396
$EndPAD
$PAD
Sh "933" C 1.524 1.524 0 0 1800
Dr 1.016 0 0
At STD N 00E0FFFF
Ne 0 ""
Po 30.7848 52.6796
$EndPAD
$PAD
Sh "928" C 1.524 1.524 0 0 1800
Dr 1.016 0 0
At STD N 00E0FFFF
Ne 0 ""
Po 38.4048 50.1396
$EndPAD
$PAD
Sh "932" C 1.524 1.524 0 0 1800
Dr 1.016 0 0
At STD N 00E0FFFF
Ne 0 ""
Po 33.3248 50.1396
$EndPAD
$PAD
Sh "934" C 1.524 1.524 0 0 1800
Dr 1.016 0 0
At STD N 00E0FFFF
Ne 0 ""
Po 30.7848 50.1396
$EndPAD
$PAD
Sh "936" C 1.524 1.524 0 0 1800
Dr 1.016 0 0
At STD N 00E0FFFF
Ne 0 ""
Po 28.2448 50.1396
$EndPAD
$PAD
Sh "938" C 1.524 1.524 0 0 1800
Dr 1.016 0 0
At STD N 00E0FFFF
Ne 0 ""
Po 25.7048 50.1396
$EndPAD
$PAD
Sh "935" C 1.524 1.524 0 0 1800
Dr 1.016 0 0
At STD N 00E0FFFF
Ne 0 ""
Po 28.2448 52.6796
$EndPAD
$PAD
Sh "937" C 1.524 1.524 0 0 1800
Dr 1.016 0 0
At STD N 00E0FFFF
Ne 0 ""
Po 25.7048 52.6796
$EndPAD
$PAD
Sh "903" C 1.524 1.524 0 0 1800
Dr 1.016 0 0
At STD N 00E0FFFF
Ne 0 ""
Po 68.8848 52.6796
$EndPAD
$PAD
Sh "905" C 1.524 1.524 0 0 1800
Dr 1.016 0 0
At STD N 00E0FFFF
Ne 0 ""
Po 66.3448 52.6796
$EndPAD
$PAD
Sh "907" C 1.524 1.524 0 0 1800
Dr 1.016 0 0
At STD N 00E0FFFF
Ne 0 ""
Po 63.8048 52.6796
$EndPAD
$PAD
Sh "909" C 1.524 1.524 0 0 1800
Dr 1.016 0 0
At STD N 00E0FFFF
Ne 0 ""
Po 61.2648 52.6796
$EndPAD
$PAD
Sh "939" C 1.524 1.524 0 0 1800
Dr 1.016 0 0
At STD N 00E0FFFF
Ne 0 ""
Po 23.1648 52.6796
$EndPAD
$PAD
Sh "940" C 1.524 1.524 0 0 1800
Dr 1.016 0 0
At STD N 00E0FFFF
Ne 0 ""
Po 23.1648 50.1396
$EndPAD
$PAD
Sh "930" C 1.524 1.524 0 0 1800
Dr 1.016 0 0
At STD N 00E0FFFF
Ne 0 ""
Po 35.8648 50.1396
$EndPAD
$PAD
Sh "941" C 1.524 1.524 0 0 1800
Dr 1.016 0 0
At STD N 00E0FFFF
Ne 0 ""
Po 20.6248 52.6796
$EndPAD
$PAD
Sh "942" C 1.524 1.524 0 0 1800
Dr 1.016 0 0
At STD N 00E0FFFF
Ne 0 ""
Po 20.6248 50.1396
$EndPAD
$PAD
Sh "943" C 1.524 1.524 0 0 1800
Dr 1.016 0 0
At STD N 00E0FFFF
Ne 0 ""
Po 18.0848 52.6796
$EndPAD
$PAD
Sh "944" C 1.524 1.524 0 0 1800
Dr 1.016 0 0
At STD N 00E0FFFF
Ne 0 ""
Po 18.0848 50.1396
$EndPAD
$PAD
Sh "945" C 1.524 1.524 0 0 1800
Dr 1.016 0 0
At STD N 00E0FFFF
Ne 0 ""
Po 15.5448 52.6796
$EndPAD
$PAD
Sh "946" C 1.524 1.524 0 0 1800
Dr 1.016 0 0
At STD N 00E0FFFF
Ne 0 ""
Po 15.5448 50.1396
$EndPAD
$PAD
Sh "901" C 1.5 1.5 0 0 1800
Dr 1.02 0 0
At STD N 00E0FFFF
Ne 0 ""
Po 71.4248 52.6796
$EndPAD
$EndMODULE BBB
$EndLIBRARY
